<svg xmlns="http://www.w3.org/2000/svg" xmlns:xlink="http://www.w3.org/1999/xlink" width="668.35" height="455.456" viewBox="0 0 668.35 455.456">
  <defs>
    <linearGradient id="linear-gradient" x1="0.5" y1="1" x2="0.5" gradientUnits="objectBoundingBox">
      <stop offset="0" stop-color="gray" stop-opacity="0.251"/>
      <stop offset="0.535" stop-color="gray" stop-opacity="0.122"/>
      <stop offset="1" stop-color="gray" stop-opacity="0.102"/>
    </linearGradient>
  </defs>
  <g id="undraw_Designer_by46" transform="translate(0 0)">
    <path id="Path_153" data-name="Path 153" d="M247.737,640.242c-4.805,18.3-21.644,29.735-21.644,29.735s-9.047-18.233-4.242-36.533S243.5,603.709,243.5,603.709,252.542,621.942,247.737,640.242Z" transform="translate(-147.403 -270.23)" fill="#3f3d56"/>
    <path id="Path_154" data-name="Path 154" d="M242.734,644.581c-13.459,13.3-14.965,33.6-14.965,33.6s20.316-1.26,33.775-14.557,14.965-33.6,14.965-33.6S256.192,631.284,242.734,644.581Z" transform="translate(-149.688 -278.44)" fill="#ff4747"/>
    <rect id="Rectangle_94" data-name="Rectangle 94" width="73.558" height="31.301" rx="15.198" transform="translate(46.821 394.389)" fill="#ff4747"/>
    <g id="Group_28" data-name="Group 28" transform="translate(559.705 363.116)" opacity="0.7">
      <path id="Path_155" data-name="Path 155" d="M984.2,658.063V646.785H927.8V698.95a11,11,0,0,0,11,11h34.4a11,11,0,0,0,11-11V687.389a14.663,14.663,0,0,0,0-29.325Zm0,23.686V663.7a9.023,9.023,0,1,1,0,18.046Z" transform="translate(-927.805 -646.785)" fill="url(#linear-gradient)"/>
    </g>
    <path id="Path_156" data-name="Path 156" d="M1001.069,665.744a13.388,13.388,0,1,0,13.388,13.388,13.387,13.387,0,0,0-13.388-13.388Zm0,21.626a8.238,8.238,0,1,1,8.239-8.238,8.238,8.238,0,0,1-8.239,8.238Z" transform="translate(-386.782 -289.585)" fill="#ff4747"/>
    <path id="Path_157" data-name="Path 157" d="M1001.069,665.744a13.388,13.388,0,1,0,13.388,13.388,13.387,13.387,0,0,0-13.388-13.388Zm0,21.626a8.238,8.238,0,1,1,8.239-8.238,8.238,8.238,0,0,1-8.239,8.238Z" transform="translate(-386.782 -289.585)" opacity="0.1"/>
    <path id="Path_158" data-name="Path 158" d="M818.016,531.776h51.491v50.962a6.708,6.708,0,0,1-6.708,6.708H824.724a6.708,6.708,0,0,1-6.708-6.708Z" transform="translate(-255.222 -165.915)" fill="#ff4747"/>
    <rect id="Rectangle_95" data-name="Rectangle 95" width="668.35" height="22.656" transform="translate(0 423.531)" fill="#e0e0e0"/>
    <g id="Group_29" data-name="Group 29" transform="translate(213.553 0)" opacity="0.7">
      <path id="Path_159" data-name="Path 159" d="M650.734,390.942c-7.163-26-47.773-44.987-78.329-49.2,0-.192.015-.382.015-.575V318.913l.1-.034v-.844a76.326,76.326,0,0,0,46.1-48.319,82.467,82.467,0,0,0,4.919-10.606c3.262-1.188,5.726-6.567,5.726-13.03a22.753,22.753,0,0,0-.921-6.533,83.612,83.612,0,0,0,.612-9.92,82.683,82.683,0,0,0-27.311-61.495,16.133,16.133,0,0,0,.258-4.044c-.691-10.683-12.1-17.94-22.8-18.426a22.567,22.567,0,0,0,3.806-23.83c-6.819,9.934-20.818,10.99-32.867,11.068,5.2-2.013,7.539-9.217,4.515-13.9-12.593,16.879-37.142,20-52.12,34.808a43.939,43.939,0,0,0-8.1,11.054,82.726,82.726,0,0,0-31.18,64.765,83.626,83.626,0,0,0,.6,9.831,22.679,22.679,0,0,0-.95,6.622c0,6.493,2.487,11.889,5.771,13.043a82.478,82.478,0,0,0,4.942,10.641,76.311,76.311,0,0,0,45.78,48.15V341.17c0,.179.01.356.014.534-30.672,4.138-71.606,23.274-78.706,49.484-6.131,22.634-12.676,47.491-15.932,62.086,27.911,19.612,86.477,31.127,123.18,31.127,34.873,0,91.871-10.394,118.96-28.252C663.883,440.113,657.132,414.164,650.734,390.942Z" transform="translate(-424.678 -119)" fill="url(#linear-gradient)"/>
    </g>
    <path id="Path_160" data-name="Path 160" d="M549.723,577.93c33.64,0,88.624-10.026,114.756-27.253-2.831-15.469-9.343-40.5-15.515-62.9-7.86-28.53-57.467-48.309-87.059-48.309H533.389c-29.684,0-79.363,19.893-87.124,48.545-5.914,21.834-12.228,45.813-15.369,59.892C457.821,566.821,514.317,577.93,549.723,577.93Z" transform="translate(-213.064 -218.985)" fill="#ff4747"/>
    <circle id="Ellipse_12" data-name="Ellipse 12" cx="79.97" cy="79.97" r="79.97" transform="translate(254.952 33.204)" fill="#72351c"/>
    <path id="Path_161" data-name="Path 161" d="M449.291,261.311h51.241V302.3a25.621,25.621,0,0,1-25.621,25.621h0A25.621,25.621,0,0,1,449.291,302.3V261.311Z" transform="translate(-140.179 -81.529)" opacity="0.1"/>
    <path id="Path_162" data-name="Path 162" d="M456.641,258.553h36.542a7.35,7.35,0,0,1,7.35,7.35v33.643a25.621,25.621,0,0,1-25.621,25.621h0a25.621,25.621,0,0,1-25.621-25.621V265.9A7.35,7.35,0,0,1,456.641,258.553Z" transform="translate(-140.179 -80.669)" fill="#fda57d"/>
    <path id="Path_163" data-name="Path 163" d="M563.709,405.644a73.748,73.748,0,0,0,51.241.142v-6.295H563.709Z" transform="translate(-254.502 -206.513)" opacity="0.1"/>
    <circle id="Ellipse_13" data-name="Ellipse 13" cx="73.446" cy="73.446" r="73.446" transform="translate(261.476 55.669)" fill="#fda57d"/>
    <path id="Path_164" data-name="Path 164" d="M525.046,201.185S556,264.015,643.314,227.518l-20.328-31.877-36.035-12.936Z" transform="translate(-242.439 -138.876)" opacity="0.1"/>
    <path id="Path_165" data-name="Path 165" d="M525.046,199.842S556,262.672,643.314,226.175L622.987,194.3l-36.035-12.936Z" transform="translate(-242.439 -138.457)" fill="#72351c"/>
    <path id="Path_166" data-name="Path 166" d="M523.952,179.067a42.428,42.428,0,0,1,10.516-17.105c14.449-14.28,38.13-17.3,50.278-33.578,2.917,4.518.66,11.468-4.355,13.41,11.623-.075,25.128-1.094,31.706-10.677a21.769,21.769,0,0,1-3.671,22.988c10.316.468,21.323,7.469,21.99,17.774.444,6.865-3.86,13.365-9.5,17.3s-12.467,5.745-19.186,7.226C582.116,200.731,511.154,218.854,523.952,179.067Z" transform="translate(-241.619 -121.928)" fill="#72351c"/>
    <path id="Path_167" data-name="Path 167" d="M641.237,307.6H639.29l-37.883,33.725c-36.5-17.093-63.292,0-63.292,0l-39.731-32.339-4.006.5A73.44,73.44,0,1,0,641.245,307.6Zm-73.555,46.661c-14.288,0-25.871-2.9-25.871-6.468s11.583-6.468,25.871-6.468,25.871,2.9,25.871,6.468S581.97,354.263,567.682,354.263Z" transform="translate(-232.871 -177.844)" fill="#72351c"/>
    <ellipse id="Ellipse_14" data-name="Ellipse 14" cx="6.832" cy="12.81" rx="6.832" ry="12.81" transform="translate(254.615 116.235)" fill="#fda57d"/>
    <ellipse id="Ellipse_15" data-name="Ellipse 15" cx="6.832" cy="12.81" rx="6.832" ry="12.81" transform="translate(401.526 116.235)" fill="#fda57d"/>
    <g id="Group_30" data-name="Group 30" transform="translate(192.06 259.86)" opacity="0.7">
      <rect id="Rectangle_96" data-name="Rectangle 96" width="284.229" height="163.671" rx="14.5" fill="url(#linear-gradient)"/>
    </g>
    <rect id="Rectangle_97" data-name="Rectangle 97" width="273.931" height="160.651" rx="26.835" transform="translate(197.209 262.88)" fill="#535461"/>
    <circle id="Ellipse_16" data-name="Ellipse 16" cx="9.268" cy="9.268" r="9.268" transform="translate(324.907 333.937)" fill="#fff"/>
    <rect id="Rectangle_98" data-name="Rectangle 98" width="611.71" height="9.268" transform="translate(28.32 446.187)" fill="#e0e0e0"/>
    <rect id="Rectangle_99" data-name="Rectangle 99" width="611.71" height="3.089" transform="translate(28.32 446.187)" opacity="0.1"/>
    <path id="Path_168" data-name="Path 168" d="M989.112,650.776V698.4a10.041,10.041,0,0,1-10.041,10.041h5.149A10.041,10.041,0,0,0,994.261,698.4V650.776Z" transform="translate(-384.095 -284.915)" opacity="0.1"/>
    <path id="Path_169" data-name="Path 169" d="M945.945,594.381a3.007,3.007,0,0,0-2.274,1.154c-.676,1.224.548,2.6,1.665,3.446,2.063,1.554,4.238,3.081,5.641,5.251s1.843,5.2.31,7.276c-2,2.715-6.778,3.3-7.241,6.64-.3,2.145,1.558,3.976,3.437,5.052,4.638,2.657,10.617,3.366,13.977,7.523,1.39-2.858,4.5-4.51,7.6-5.215s6.318-.653,9.459-1.131a3.271,3.271,0,0,0,2.61-1.384c.878-1.782-1.625-3.92-.761-5.709.657-1.362,2.589-1.256,4-1.8,2.3-.888,3.244-3.844,2.592-6.218s-2.493-4.23-4.429-5.751c-5.218-4.1-11.492-6.511-17.838-8.246-2.951-.807-6.416-2.072-9.482-2.194C952.249,592.956,948.875,593.88,945.945,594.381Z" transform="translate(-372.99 -266.908)" fill="#eee"/>
  </g>
</svg>
